1 277.8016499038925
2 281.0321545529505
3 283.53425076788204
4 277.5336293716254
5 300.5549334462312
6 307.19184749013033
7 276.2619157060573
8 283.87427070365925
9 287.52188715235303
10 285.3050315695654
11 293.2155392833353
12 288.9925822355381
13 287.3060150607028
14 274.2507801733525
15 268.2376359918132
16 278.49610608655956
17 288.6152069020399
18 279.37253459379764
19 280.9988148846934
20 291.1505388712354
21 283.98230118295345
22 275.10452492402794
23 285.5825956338359
24 281.95151607300295
25 301.0526459919105
26 274.0594349628736
27 282.9012530834156
28 302.9160494619742
29 283.6682480731414
30 281.20404394976737
31 288.7131858333322
32 284.33603214629034
33 289.53035698583165
34 270.5641762130276
35 278.6045825117616
36 280.84069626128036
37 306.8187707867424
38 273.3065394962914
39 277.3907054628357
40 283.6660452118293
41 284.1591162400756
42 291.2230704772805
43 284.65112116262463
44 276.3865829997103
45 276.82264613139824
46 297.97936577032584
47 270.6037165669328
48 298.8599220904608
49 300.3805879853056
50 275.42838775596044
