1 248.6276808168404
2 271.05262046174005
3 257.6937736831272
4 248.32620671538314
5 267.7110101145697
6 274.44229670931134
7 276.1785358695372
8 301.3789186613672
9 285.87638251149923
10 254.81145267744807
11 300.9424851970928
12 310.27222056593615
13 252.0936093697405
14 260.10186863017657
15 288.78068357730666
16 257.9751826175229
17 269.8681294449249
18 274.6346685198591
19 294.5822286972056
20 288.1885494195197
21 283.4925487328435
22 301.7988417377981
23 304.61157649896535
24 262.53572363212203
25 268.99190738491654
26 288.39891071528695
27 240.36462855287692
28 279.42360842020713
29 294.93714524412644
30 285.9403765726636
31 263.4544895303276
32 271.99454009227946
33 253.09882606307858
34 309.32855918140274
35 325.3165826162296
36 334.4298676446364
37 314.3408536753897
38 297.8173494343024
39 320.86707800215567
40 298.7177686467879
41 260.4386675363724
42 275.75975454199056
43 260.26763199254566
44 274.18172061468044
45 267.04750530558874
46 311.232706233144
47 278.20457812284326
48 289.05001127819946
49 283.0270117424312
50 273.4229981618549
