
	Distribution Summary

Distribution:	Exponential  
Expression:	EXPO(7.11)
Square Error:	0.050004

Chi Square Test
  Number of intervals	= 13
  Degrees of freedom 	= 11
  Test Statistic     	= 149
  Corresponding p-value	< 0.005

Kolmogorov-Smirnov Test
  Test Statistic	= 0.173
  Corresponding p-value	< 0.01

	Data Summary

Number of Data Points	= 537
Min Data Value       	= 0.021
Max Data Value       	= 40.5
Sample Mean          	= 7.11
Sample Std Dev       	= 6.42

	Histogram Summary

Histogram Range    	= 0 to 41
Number of Intervals	= 23


==================================================================
Int.   No. of               Probability           Cumulative      
No.    Data Pts.   x        Density               Distribution    
------------------------------------------------------------------
                            Data   Function       Data   Function   
   0    30       1.78     0.0559      0.222     0.0559      0.222
   1   161       3.57      0.300      0.173      0.356      0.394
   2   111       5.35      0.207      0.134      0.562      0.529
   3    62       7.13      0.115      0.105      0.678      0.633
   4    40       8.91     0.0745     0.0813      0.752      0.715
   5    21       10.7     0.0391     0.0633      0.791      0.778
   6    21       12.5     0.0391     0.0493      0.831      0.827
   7    24       14.3     0.0447     0.0383      0.875      0.865
   8    19       16.0     0.0354     0.0298      0.911      0.895
   9    11       17.8     0.0205     0.0232      0.931      0.919
  10     8       19.6     0.0149     0.0181      0.946      0.937
  11     3       21.4    0.00559     0.0141      0.952      0.951
  12     7       23.2     0.0130     0.0109      0.965      0.962
  13     3       25.0    0.00559    0.00851      0.970      0.970
  14     3       26.7    0.00559    0.00663      0.976      0.977
  15     4       28.5    0.00745    0.00516      0.983      0.982
  16     2       30.3    0.00372    0.00401      0.987      0.986
  17     3       32.1    0.00559    0.00312      0.993      0.989
  18     0       33.9      0.000    0.00243      0.993      0.991
  19     1       35.7    0.00186    0.00189      0.994      0.993
  20     1       37.4    0.00186    0.00147      0.996      0.995
  21     1       39.2    0.00186    0.00115      0.998      0.996
  22     1       41.0    0.00186   0.000891       1.00      0.997
