1 366.4173202011537
2 311.67892281634613
3 383.6224637265619
4 319.09891358176645
5 335.11114374112753
6 320.7506383746915
7 339.1112362487766
8 380.2749350624172
9 300.3012249045897
10 338.7842325548642
11 367.01830739421325
12 380.0450329196841
13 387.6950423904558
14 387.7842878647465
15 312.6588503560729
16 322.8505059217051
17 386.37085773219513
18 315.18020663930633
19 328.9860328347254
20 311.6719099431828
21 296.966093457963
22 342.9374528489167
23 336.95625354518285
24 340.3453299066664
25 366.5220846044073
26 340.2300924840355
27 282.75972627150713
28 346.99471865610695
29 386.96224589318496
30 354.213078459743
31 333.54506217660537
32 354.8979093702721
33 356.1699714116853
34 405.4634060769016
35 323.77579889291934
36 387.13882453282724
37 277.335219380212
38 300.34914777676374
39 288.39593679609675
40 352.5976403514088
41 312.6129199788691
42 313.7865853390502
43 328.49332420009495
44 395.9262065443468
45 332.43875260773814
46 387.01107137311624
47 389.825293858812
48 339.66449306661417
49 398.7437299851144
50 361.6750632244684
