1 277.41079358261845
2 344.16104388343314
3 343.17761103564897
4 311.5932425361209
5 320.78854201623693
6 275.93240393165325
7 317.076526574646
8 287.1143159457495
9 289.30522771221234
10 369.58997822321766
11 355.8666359249012
12 299.9521275168173
13 283.4300429029122
14 382.99685569008636
15 264.41567136618113
16 291.86659858385485
17 328.5945544660443
18 270.38822438709116
19 300.5091268700158
20 266.9141688927919
21 271.5746553648523
22 328.392455487334
23 302.05323607923236
24 267.1220804019239
25 272.71000297803715
26 298.0972661795322
27 273.8101544741635
28 279.8515190228242
29 349.6262916154716
30 300.3204125412303
31 308.0116471340486
32 351.9356793814619
33 328.8755773188729
34 306.46925057302747
35 278.1520070071583
36 280.5839470711795
37 276.26478970903275
38 323.1758172352114
39 276.0670390000136
40 326.94306649501397
41 268.0337132353841
42 360.26628545252225
43 283.37279049598664
44 393.150253149812
45 300.82340133851454
46 305.03591909471277
47 274.4152937128774
48 294.8185846444829
49 393.33157748544954
50 373.942855841174
