1 172.5022884463188
2 173.41014219772637
3 172.50299718769153
4 172.28620236612085
5 172.00654857724413
6 172.5459674790226
7 172.3958417594178
8 172.930370193893
9 173.98959473304586
10 174.88812464677255
11 172.16668679468904
12 172.60564150047495
13 171.69942161808754
14 173.49581790724517
15 172.40174701298844
16 173.41366868169857
17 174.1387339689576
18 173.53412047127273
19 171.73777853591497
20 173.73235928682527
21 173.52355295061926
22 172.24639453812824
23 172.8997491223608
24 171.62681772999775
25 172.60788307405667
26 173.60771032095082
27 172.2550686661932
28 173.02094838461807
29 174.90625968273906
30 172.4099268094598
31 171.51579362300677
32 173.61470762667838
33 174.5420571038316
34 173.45495917688493
35 171.91073217069706
36 171.1478336803088
37 172.046735075324
38 173.02818249407858
39 174.00690182217346
40 172.92987151316945
41 172.95079975471188
42 172.38048516277325
43 173.6188345043961
44 173.02123623817664
45 172.0391164567384
46 174.31904422799792
47 173.06222222619135
48 174.00279081724602
49 171.89444144560744
50 173.23138152478987
