541     01:00:28.097    00:00:02.104   
540     01:00:25.993    00:00:03.790   
539     01:00:22.203    00:00:04.065   
538     01:00:18.138    00:00:02.418   
537     01:00:15.720    00:00:03.190   
536     01:00:12.530    00:00:01.816   
535     01:00:10.714    00:00:03.470   
534     01:00:07.244    00:00:06.953   
533     01:00:00.291    00:00:03.123   
532     00:59:57.168    00:00:02.719   
531     00:59:54.449    00:00:07.661   
530     00:59:46.788    00:00:02.569   
529     00:59:44.219    00:00:06.108   
528     00:59:38.111    00:00:03.374   
527     00:59:34.737    00:00:03.129   
526     00:59:31.608    00:00:02.719   
525     00:59:28.889    00:00:05.122   
524     00:59:23.767    00:00:19.518   
523     00:59:04.249    00:00:03.138   
522     00:59:01.111    00:00:06.063   
521     00:58:55.048    00:00:02.030   
520     00:58:53.018    00:00:02.270   
519     00:58:50.748    00:00:02.268   
518     00:58:48.480    00:00:05.759   
517     00:58:42.721    00:00:02.662   
516     00:58:40.059    00:00:03.950   
515     00:58:36.109    00:00:03.190   
514     00:58:32.919    00:00:05.411   
513     00:58:27.508    00:00:01.530   
512     00:58:25.978    00:00:04.339   
511     00:58:21.639    00:00:03.009   
510     00:58:18.630    00:00:02.861   
509     00:58:15.769    00:00:02.860   
508     00:58:12.909    00:00:01.585   
507     00:58:11.324    00:00:04.366   
506     00:58:06.958    00:00:03.183   
505     00:58:03.775    00:00:03.747   
504     00:58:00.028    00:00:06.382   
503     00:57:53.646    00:00:08.598   
502     00:57:45.048    00:00:01.981   
501     00:57:43.067    00:00:03.452   
500     00:57:39.615    00:00:39.680   
499     00:56:59.935    00:00:04.631   
498     00:56:55.304    00:00:05.000   
497     00:56:50.304    00:00:05.117   
496     00:56:45.187    00:00:07.099   
495     00:56:38.088    00:00:02.064   
494     00:56:36.024    00:00:12.677   
493     00:56:23.347    00:00:02.952   
492     00:56:20.395    00:00:05.714   
491     00:56:14.681    00:00:15.666   
490     00:55:59.015    00:00:20.737   
489     00:55:38.278    00:00:02.541   
488     00:55:35.737    00:00:03.762   
487     00:55:31.975    00:00:09.015   
486     00:55:22.960    00:00:07.367   
485     00:55:15.593    00:00:04.214   
484     00:55:11.379    00:00:17.271   
483     00:54:54.108    00:00:01.441   
482     00:54:52.667    00:00:02.721   
481     00:54:49.946    00:00:16.208   
480     00:54:33.738    00:00:02.800   
479     00:54:30.938    00:00:10.864   
478     00:54:20.074    00:00:16.100   
477     00:54:03.974    00:00:06.314   
476     00:53:57.660    00:00:04.791   
475     00:53:52.869    00:00:03.681   
474     00:53:49.188    00:00:02.277   
473     00:53:46.911    00:00:06.844   
472     00:53:40.067    00:00:06.164   
471     00:53:33.903    00:00:05.694   
470     00:53:28.209    00:00:27.698   
469     00:53:00.511    00:00:02.931   
468     00:52:57.580    00:00:02.535   
467     00:52:55.045    00:00:07.588   
466     00:52:47.457    00:00:03.040   
465     00:52:44.417    00:00:04.740   
464     00:52:39.677    00:00:03.268   
463     00:52:36.409    00:00:03.900   
462     00:52:32.509    00:00:03.145   
461     00:52:29.364    00:00:13.047   
460     00:52:16.317    00:00:01.185   
459     00:52:15.132    00:00:04.778   
458     00:52:10.354    00:00:18.329   
457     00:51:52.025    00:00:07.847   
456     00:51:44.178    00:00:02.972   
455     00:51:41.206    00:00:04.658   
454     00:51:36.548    00:00:02.921   
453     00:51:33.627    00:00:06.615   
452     00:51:27.012    00:00:03.818   
451     00:51:23.194    00:00:03.953   
450     00:51:19.241    00:00:14.507   
449     00:51:04.734    00:00:18.252   
448     00:50:46.482    00:00:07.775   
447     00:50:38.707    00:00:03.880   
446     00:50:34.827    00:00:02.380   
445     00:50:32.447    00:00:01.804   
444     00:50:30.643    00:00:06.366   
443     00:50:24.277    00:00:02.083   
442     00:50:22.194    00:00:25.310   
441     00:49:56.884    00:00:19.397   
440     00:49:37.487    00:00:10.870   
439     00:49:26.617    00:00:12.040   
438     00:49:14.577    00:00:12.268   
437     00:49:02.309    00:00:04.596   
436     00:48:57.713    00:00:06.768   
435     00:48:50.945    00:00:03.854   
434     00:48:47.091    00:00:09.059   
433     00:48:38.032    00:00:06.498   
432     00:48:31.534    00:00:03.397   
431     00:48:28.137    00:00:02.250   
430     00:48:25.887    00:00:01.282   
429     00:48:24.605    00:00:09.917   
428     00:48:14.688    00:00:02.330   
427     00:48:12.358    00:00:02.470   
426     00:48:09.888    00:00:01.910   
425     00:48:07.978    00:00:03.026   
424     00:48:04.952    00:00:03.484   
423     00:48:01.468    00:00:01.970   
422     00:47:59.498    00:00:01.020   
421     00:47:58.478    00:00:01.571   
420     00:47:56.907    00:00:04.759   
419     00:47:52.148    00:00:01.858   
418     00:47:50.290    00:00:06.064   
417     00:47:44.226    00:00:29.458   
416     00:47:14.768    00:00:02.639   
415     00:47:12.129    00:00:01.997   
414     00:47:10.132    00:00:18.839   
413     00:46:51.293    00:00:05.336   
412     00:46:45.957    00:00:02.079   
411     00:46:43.878    00:00:01.139   
410     00:46:42.739    00:00:07.912   
409     00:46:34.827    00:00:03.252   
408     00:46:31.575    00:00:04.455   
407     00:46:27.120    00:00:03.179   
406     00:46:23.941    00:00:04.274   
405     00:46:19.667    00:00:02.524   
404     00:46:17.143    00:00:11.578   
403     00:46:05.565    00:00:04.798   
402     00:46:00.767    00:00:03.304   
401     00:45:57.463    00:00:03.876   
400     00:45:53.587    00:00:01.630   
399     00:45:51.957    00:00:04.898   
398     00:45:47.059    00:00:02.707   
397     00:45:44.352    00:00:03.628   
396     00:45:40.724    00:00:09.927   
395     00:45:30.797    00:00:01.879   
394     00:45:28.918    00:00:03.124   
393     00:45:25.794    00:00:15.729   
392     00:45:10.065    00:00:06.357   
391     00:45:03.708    00:00:07.491   
390     00:44:56.217    00:00:02.072   
389     00:44:54.145    00:00:09.804   
388     00:44:44.341    00:00:09.203   
387     00:44:35.138    00:00:02.482   
386     00:44:32.656    00:00:11.178   
385     00:44:21.478    00:00:03.370   
384     00:44:18.108    00:00:06.381   
383     00:44:11.727    00:00:03.379   
382     00:44:08.348    00:00:02.289   
381     00:44:06.059    00:00:18.741   
380     00:43:47.318    00:00:04.301   
379     00:43:43.017    00:00:37.015   
378     00:43:06.002    00:00:05.315   
377     00:43:00.687    00:00:03.614   
376     00:42:57.073    00:00:04.678   
375     00:42:52.395    00:00:15.080   
374     00:42:37.315    00:00:11.955   
373     00:42:25.360    00:00:11.902   
372     00:42:13.458    00:00:01.251   
371     00:42:12.207    00:00:01.728   
370     00:42:10.479    00:00:02.822   
369     00:42:07.657    00:00:02.481   
368     00:42:05.176    00:00:29.649   
367     00:41:35.527    00:00:02.850   
366     00:41:32.677    00:00:02.479   
365     00:41:30.198    00:00:16.632   
364     00:41:13.566    00:00:08.280   
363     00:41:05.286    00:00:06.158   
362     00:40:59.128    00:00:02.696   
361     00:40:56.432    00:00:14.457   
360     00:40:41.975    00:00:07.117   
359     00:40:34.858    00:00:02.188   
358     00:40:32.670    00:00:02.082   
357     00:40:30.588    00:00:01.664   
356     00:40:28.924    00:00:22.596   
355     00:40:06.328    00:00:02.774   
354     00:40:03.554    00:00:04.940   
353     00:39:58.614    00:00:04.767   
352     00:39:53.847    00:00:02.567   
351     00:39:51.280    00:00:04.494   
350     00:39:46.786    00:00:03.898   
349     00:39:42.888    00:00:02.436   
348     00:39:40.452    00:00:04.054   
347     00:39:36.398    00:00:02.101   
346     00:39:34.297    00:00:16.629   
345     00:39:17.668    00:00:02.720   
344     00:39:14.948    00:00:02.852   
343     00:39:12.096    00:00:06.268   
342     00:39:05.828    00:00:11.161   
341     00:38:54.667    00:00:02.120   
340     00:38:52.547    00:00:02.410   
339     00:38:50.137    00:00:02.554   
338     00:38:47.583    00:00:04.083   
337     00:38:43.500    00:00:06.116   
336     00:38:37.384    00:00:04.268   
335     00:38:33.116    00:00:08.315   
334     00:38:24.801    00:00:04.044   
333     00:38:20.757    00:00:02.804   
332     00:38:17.953    00:00:07.846   
331     00:38:10.107    00:00:31.190   
330     00:37:38.917    00:00:01.220   
329     00:37:37.697    00:00:01.031   
328     00:37:36.666    00:00:11.732   
327     00:37:24.934    00:00:03.947   
326     00:37:20.987    00:00:01.889   
325     00:37:19.098    00:00:04.011   
324     00:37:15.087    00:00:03.280   
323     00:37:11.807    00:00:03.149   
322     00:37:08.658    00:00:02.291   
321     00:37:06.367    00:00:03.084   
320     00:37:03.283    00:00:04.567   
319     00:36:58.716    00:00:05.359   
318     00:36:53.357    00:00:04.298   
317     00:36:49.059    00:00:12.311   
316     00:36:36.748    00:00:02.836   
315     00:36:33.912    00:00:05.713   
314     00:36:28.199    00:00:03.142   
313     00:36:25.057    00:00:06.311   
312     00:36:18.746    00:00:03.459   
311     00:36:15.287    00:00:05.803   
310     00:36:09.484    00:00:13.412   
309     00:35:56.072    00:00:22.198   
308     00:35:33.874    00:00:04.153   
307     00:35:29.721    00:00:07.497   
306     00:35:22.224    00:00:07.547   
305     00:35:14.677    00:00:02.351   
304     00:35:12.326    00:00:17.711   
303     00:34:54.615    00:00:05.037   
302     00:34:49.578    00:00:02.594   
301     00:34:46.984    00:00:06.275   
300     00:34:40.709    00:00:03.071   
299     00:34:37.638    00:00:01.920   
298     00:34:35.718    00:00:01.760   
297     00:34:33.958    00:00:01.930   
296     00:34:32.028    00:00:02.299   
295     00:34:29.729    00:00:02.291   
294     00:34:27.438    00:00:01.730   
293     00:34:25.708    00:00:02.430   
292     00:34:23.278    00:00:02.304   
291     00:34:20.974    00:00:03.627   
290     00:34:17.347    00:00:02.599   
289     00:34:14.748    00:00:20.818   
288     00:33:53.930    00:00:05.783   
287     00:33:48.147    00:00:02.698   
286     00:33:45.449    00:00:11.362   
285     00:33:34.087    00:00:01.736   
284     00:33:32.351    00:00:04.463   
283     00:33:27.888    00:00:01.996   
282     00:33:25.892    00:00:08.364   
281     00:33:17.528    00:00:02.877   
280     00:33:14.651    00:00:03.765   
279     00:33:10.886    00:00:16.774   
278     00:32:54.112    00:00:07.646   
277     00:32:46.466    00:00:04.775   
276     00:32:41.691    00:00:03.924   
275     00:32:37.767    00:00:01.687   
274     00:32:36.080    00:00:09.121   
273     00:32:26.959    00:00:11.142   
272     00:32:15.817    00:00:02.290   
271     00:32:13.527    00:00:03.342   
270     00:32:10.185    00:00:04.286   
269     00:32:05.899    00:00:02.725   
268     00:32:03.174    00:00:05.317   
267     00:31:57.857    00:00:01.332   
266     00:31:56.525    00:00:04.626   
265     00:31:51.899    00:00:02.902   
264     00:31:48.997    00:00:05.719   
263     00:31:43.278    00:00:02.451   
262     00:31:40.827    00:00:01.316   
261     00:31:39.511    00:00:08.996   
260     00:31:30.515    00:00:14.747   
259     00:31:15.768    00:00:01.053   
258     00:31:14.715    00:00:03.897   
257     00:31:10.818    00:00:02.180   
256     00:31:08.638    00:00:03.269   
255     00:31:05.369    00:00:08.513   
254     00:30:56.856    00:00:05.019   
253     00:30:51.837    00:00:02.180   
252     00:30:49.657    00:00:02.984   
251     00:30:46.673    00:00:06.283   
250     00:30:40.390    00:00:09.145   
249     00:30:31.245    00:00:03.847   
248     00:30:27.398    00:00:02.378   
247     00:30:25.020    00:00:02.161   
246     00:30:22.859    00:00:17.331   
245     00:30:05.528    00:00:07.068   
244     00:29:58.460    00:00:04.543   
243     00:29:53.917    00:00:01.469   
242     00:29:52.448    00:00:06.049   
241     00:29:46.399    00:00:03.232   
240     00:29:43.167    00:00:01.310   
239     00:29:41.857    00:00:02.026   
238     00:29:39.831    00:00:04.712   
237     00:29:35.119    00:00:01.233   
236     00:29:33.886    00:00:14.060   
235     00:29:19.826    00:00:03.714   
234     00:29:16.112    00:00:15.546   
233     00:29:00.566    00:00:07.937   
232     00:28:52.629    00:00:08.345   
231     00:28:44.284    00:00:03.953   
230     00:28:40.331    00:00:13.944   
229     00:28:26.387    00:00:06.200   
228     00:28:20.187    00:00:03.113   
227     00:28:17.074    00:00:04.700   
226     00:28:12.374    00:00:08.684   
225     00:28:03.690    00:00:28.355   
224     00:27:35.335    00:00:22.280   
223     00:27:13.055    00:00:03.820   
222     00:27:09.235    00:00:41.908   
221     00:26:27.327    00:00:03.728   
220     00:26:23.599    00:00:10.072   
219     00:26:13.527    00:00:04.464   
218     00:26:09.063    00:00:07.606   
217     00:26:01.457    00:00:01.979   
216     00:25:59.478    00:00:03.541   
215     00:25:55.937    00:00:01.879   
214     00:25:54.058    00:00:01.839   
213     00:25:52.219    00:00:04.465   
212     00:25:47.754    00:00:08.806   
211     00:25:38.948    00:00:01.901   
210     00:25:37.047    00:00:02.320   
209     00:25:34.727    00:00:01.729   
208     00:25:32.998    00:00:03.156   
207     00:25:29.842    00:00:04.667   
206     00:25:25.175    00:00:04.517   
205     00:25:20.658    00:00:03.461   
204     00:25:17.197    00:00:05.459   
203     00:25:11.738    00:00:02.912   
202     00:25:08.826    00:00:22.228   
201     00:24:46.598    00:00:19.592   
200     00:24:27.006    00:00:05.561   
199     00:24:21.445    00:00:10.897   
198     00:24:10.548    00:00:01.936   
197     00:24:08.612    00:00:09.814   
196     00:23:58.798    00:00:02.280   
195     00:23:56.518    00:00:02.900   
194     00:23:53.618    00:00:03.000   
193     00:23:50.618    00:00:01.648   
192     00:23:48.970    00:00:01.537   
191     00:23:47.433    00:00:06.345   
190     00:23:41.088    00:00:01.551   
189     00:23:39.537    00:00:06.232   
188     00:23:33.305    00:00:10.238   
187     00:23:23.067    00:00:15.612   
186     00:23:07.455    00:00:04.515   
185     00:23:02.940    00:00:28.513   
184     00:22:34.427    00:00:08.858   
183     00:22:25.569    00:00:14.661   
182     00:22:10.908    00:00:03.251   
181     00:22:07.657    00:00:02.480   
180     00:22:05.177    00:00:03.220   
179     00:22:01.957    00:00:02.151   
178     00:21:59.806    00:00:06.231   
177     00:21:53.575    00:00:08.898   
176     00:21:44.677    00:00:03.250   
175     00:21:41.427    00:00:02.028   
174     00:21:39.399    00:00:03.201   
173     00:21:36.198    00:00:01.631   
172     00:21:34.567    00:00:02.360   
171     00:21:32.207    00:00:02.460   
170     00:21:29.747    00:00:03.029   
169     00:21:26.718    00:00:03.193   
168     00:21:23.525    00:00:31.474   
167     00:20:52.051    00:00:14.983   
166     00:20:37.068    00:00:06.270   
165     00:20:30.798    00:00:01.493   
164     00:20:29.305    00:00:03.488   
163     00:20:25.817    00:00:02.111   
162     00:20:23.706    00:00:13.109   
161     00:20:10.597    00:00:00.980   
160     00:20:09.617    00:00:01.802   
159     00:20:07.815    00:00:03.455   
158     00:20:04.360    00:00:28.305   
157     00:19:36.055    00:00:04.898   
156     00:19:31.157    00:00:02.099   
155     00:19:29.058    00:00:03.137   
154     00:19:25.921    00:00:05.751   
153     00:19:20.170    00:00:07.291   
152     00:19:12.879    00:00:10.163   
151     00:19:02.716    00:00:05.220   
150     00:18:57.496    00:00:04.361   
149     00:18:53.135    00:00:05.800   
148     00:18:47.335    00:00:12.963   
147     00:18:34.372    00:00:04.664   
146     00:18:29.708    00:00:02.876   
145     00:18:26.832    00:00:10.911   
144     00:18:15.921    00:00:10.051   
143     00:18:05.870    00:00:03.025   
142     00:18:02.845    00:00:13.285   
141     00:17:49.560    00:00:03.601   
140     00:17:45.959    00:00:03.365   
139     00:17:42.594    00:00:05.226   
138     00:17:37.368    00:00:08.818   
137     00:17:28.550    00:00:28.723   
136     00:16:59.827    00:00:12.483   
135     00:16:47.344    00:00:12.647   
134     00:16:34.697    00:00:01.600   
133     00:16:33.097    00:00:02.330   
132     00:16:30.767    00:00:02.350   
131     00:16:28.417    00:00:02.049   
130     00:16:26.368    00:00:27.029   
129     00:15:59.339    00:00:03.549   
128     00:15:55.790    00:00:04.050   
127     00:15:51.740    00:00:10.232   
126     00:15:41.508    00:00:02.848   
125     00:15:38.660    00:00:05.548   
124     00:15:33.112    00:00:04.033   
123     00:15:29.079    00:01:00.690   
122     00:14:28.389    00:00:06.645   
121     00:14:21.744    00:00:04.474   
120     00:14:17.270    00:00:03.022   
119     00:14:14.248    00:00:02.337   
118     00:14:11.911    00:00:11.763   
117     00:14:00.148    00:00:01.548   
116     00:13:58.600    00:00:06.897   
115     00:13:51.703    00:00:04.422   
114     00:13:47.281    00:00:03.590   
113     00:13:43.691    00:00:04.303   
112     00:13:39.388    00:00:03.182   
111     00:13:36.206    00:00:04.975   
110     00:13:31.231    00:00:03.930   
109     00:13:27.301    00:00:03.435   
108     00:13:23.866    00:00:03.596   
107     00:13:20.270    00:00:04.135   
106     00:13:16.135    00:00:12.995   
105     00:13:03.140    00:00:04.563   
104     00:12:58.577    00:00:01.882   
103     00:12:56.695    00:00:04.977   
102     00:12:51.718    00:00:04.807   
101     00:12:46.911    00:00:09.942   
100     00:12:36.969    00:00:23.401   
99      00:12:13.568    00:00:03.077   
98      00:12:10.491    00:00:03.642   
97      00:12:06.849    00:00:11.458   
96      00:11:55.391    00:00:05.497   
95      00:11:49.894    00:00:03.456   
94      00:11:46.438    00:00:02.911   
93      00:11:43.527    00:00:02.900   
92      00:11:40.627    00:00:02.064   
91      00:11:38.563    00:00:04.244   
90      00:11:34.319    00:00:01.403   
89      00:11:32.916    00:00:07.082   
88      00:11:25.834    00:00:18.214   
87      00:11:07.620    00:00:16.516   
86      00:10:51.104    00:00:13.374   
85      00:10:37.730    00:00:06.243   
84      00:10:31.487    00:00:01.039   
83      00:10:30.448    00:00:02.702   
82      00:10:27.746    00:00:07.751   
81      00:10:19.995    00:00:05.952   
80      00:10:14.043    00:00:03.405   
79      00:10:10.638    00:00:03.323   
78      00:10:07.315    00:00:06.417   
77      00:10:00.898    00:00:02.511   
76      00:09:58.387    00:00:08.133   
75      00:09:50.254    00:00:17.446   
74      00:09:32.808    00:00:01.820   
73      00:09:30.988    00:00:01.577   
72      00:09:29.411    00:00:31.752   
71      00:08:57.659    00:00:02.373   
70      00:08:55.286    00:00:30.708   
69      00:08:24.578    00:00:02.975   
68      00:08:21.603    00:00:06.429   
67      00:08:15.174    00:00:12.754   
66      00:08:02.420    00:00:01.253   
65      00:08:01.167    00:00:02.089   
64      00:07:59.078    00:00:15.844   
63      00:07:43.234    00:00:05.019   
62      00:07:38.215    00:00:33.617   
61      00:07:04.598    00:00:02.479   
60      00:07:02.119    00:00:03.770   
59      00:06:58.349    00:00:02.672   
58      00:06:55.677    00:00:03.032   
57      00:06:52.645    00:00:03.532   
56      00:06:49.113    00:00:03.674   
55      00:06:45.439    00:00:02.711   
54      00:06:42.728    00:00:03.684   
53      00:06:39.044    00:00:03.525   
52      00:06:35.519    00:00:02.300   
51      00:06:33.219    00:00:02.652   
50      00:06:30.567    00:00:02.708   
49      00:06:27.859    00:00:03.061   
48      00:06:24.798    00:00:03.119   
47      00:06:21.679    00:00:03.163   
46      00:06:18.516    00:00:04.706   
45      00:06:13.810    00:00:01.940   
44      00:06:11.870    00:00:01.049   
43      00:06:10.821    00:00:37.693   
42      00:05:33.128    00:00:08.383   
41      00:05:24.745    00:00:16.045   
40      00:05:08.700    00:00:14.812   
39      00:04:53.888    00:00:03.748   
38      00:04:50.140    00:00:09.335   
37      00:04:40.805    00:00:07.197   
36      00:04:33.608    00:00:05.164   
35      00:04:28.444    00:00:03.867   
34      00:04:24.577    00:00:07.613   
33      00:04:16.964    00:00:03.466   
32      00:04:13.498    00:00:02.731   
31      00:04:10.767    00:00:16.878   
30      00:03:53.889    00:00:02.198   
29      00:03:51.691    00:00:01.871   
28      00:03:49.820    00:00:01.581   
27      00:03:48.239    00:00:02.240   
26      00:03:45.999    00:00:02.379   
25      00:03:43.620    00:00:05.090   
24      00:03:38.530    00:00:28.103   
23      00:03:10.427    00:00:05.528   
22      00:03:04.899    00:00:02.701   
21      00:03:02.198    00:00:01.329   
20      00:03:00.869    00:00:03.289   
19      00:02:57.580    00:00:20.763   
18      00:02:36.817    00:00:09.433   
17      00:02:27.384    00:00:09.231   
16      00:02:18.153    00:00:08.596   
15      00:02:09.557    00:00:03.517   
14      00:02:06.040    00:00:03.763   
13      00:02:02.277    00:00:03.180   
12      00:01:59.097    00:00:03.409   
11      00:01:55.688    00:00:02.740   
10      00:01:52.948    00:00:02.721   
9       00:01:50.227    00:00:02.310   
8       00:01:47.917    00:00:13.474   
7       00:01:34.443    00:00:26.638   
6       00:01:07.805    00:00:19.230   
5       00:00:48.575    00:00:07.117   
4       00:00:41.458    00:00:26.673   
3       00:00:14.785    00:00:03.584   
2       00:00:11.201    00:00:06.467   
1       00:00:04.734    00:00:04.734   