1 181.28292800747545
2 190.29962726200736
3 183.87323697125572
4 221.5026650011902
5 191.9600137312071
6 183.7616439371141
7 190.8615115844793
8 187.82682094544612
9 182.51507491301916
10 178.12795367978416
11 180.45678253660628
12 185.0083623877843
13 182.5538407666079
14 179.23754193087302
15 183.1827937686016
16 181.66250518188775
17 181.34969829027887
18 185.03010830707305
19 181.05152159373026
20 182.15175701089677
21 188.39940236243038
22 182.09599889682502
23 183.14392249181466
24 180.69159069709758
25 186.6631804470817
26 186.36416296954127
27 188.55372308673566
28 181.6369372002113
29 190.44989885462041
30 189.19517545413694
31 180.69467296975012
32 185.8467373554555
33 182.09423663292569
34 180.42245242236814
35 181.12568237509151
36 181.59968033350646
37 186.286015986361
38 190.63808989440273
39 199.57399863401224
40 184.2798568537576
41 194.19021215787677
42 191.17291255507797
43 182.76022317723772
44 227.90396012386321
45 191.95155647437096
46 198.06855203456567
47 187.8332726583858
48 187.41324154254102
49 183.92026028952552
50 180.5083723828207
