
	Distribution Summary

Distribution:	Exponential  
Expression:	EXPO(6.71)
Square Error:	0.006562

Chi Square Test
  Number of intervals	= 7
  Degrees of freedom 	= 5
  Test Statistic     	= 22.4
  Corresponding p-value	< 0.005

Kolmogorov-Smirnov Test
  Test Statistic	= 0.165
  Corresponding p-value	< 0.01

	Data Summary

Number of Data Points	= 541
Min Data Value       	= 0.98
Max Data Value       	= 60.7
Sample Mean          	= 6.71
Sample Std Dev       	= 7.09

	Histogram Summary

Histogram Range    	= 0 to 61
Number of Intervals	= 17


==================================================================
Int.   No. of               Probability           Cumulative      
No.    Data Pts.   x        Density               Distribution    
------------------------------------------------------------------
                            Data   Function       Data   Function   
   0   239       3.59      0.442      0.414      0.442      0.414
   1   158       7.18      0.292      0.243      0.734      0.657
   2    50       10.8     0.0924      0.142      0.826      0.799
   3    31       14.4     0.0573     0.0832      0.884      0.882
   4    24       17.9     0.0444     0.0487      0.928      0.931
   5    12       21.5     0.0222     0.0285      0.950      0.960
   6     5       25.1    0.00924     0.0167      0.959      0.976
   7     9       28.7     0.0166    0.00979      0.976      0.986
   8     7       32.3     0.0129    0.00573      0.989      0.992
   9     1       35.9    0.00185    0.00336      0.991      0.995
  10     2       39.5    0.00370    0.00197      0.994      0.997
  11     2       43.1    0.00370    0.00115      0.998      0.998
  12     0       46.6      0.000   0.000674      0.998      0.999
  13     0       50.2      0.000   0.000395      0.998      0.999
  14     0       53.8      0.000   0.000231      0.998       1.00
  15     0       57.4      0.000   0.000135      0.998       1.00
  16     1       61.0    0.00185  7.93e-005       1.00       1.00
