8.811
23.978
8.331
2.854
3.737
6.964
6.82
6.22
15.851
4.862
5.319
3.023
5.645
0.9
17.499
11.476
4.064
4.525
4.188
8.123
5.984
24.632
13.129
1.999
4.775
19.461
3.436
6.04
16.947
4.994
10.802
4.077
3.865
3.658
6.142
4.797
5.6
9.686
10.253
6.636
4.527
54.704
3.034
2.601
4.406
4.8
10.779
3.892
8.943
3.58
3.48
17.27
5.934
4.698
8.404
15.459
5.9
8.033
5.2
18.5
4.998
10.205
2.776
5.164
6.424
4.833
48.979
3.984
3.737
12.869
4.298
56.341
99.994
9.678
9.224
4.176
6.252
4.467
2.88
6.281
3.879
4.501
5.289
38.199
6.295
3.465
3.781
9.415
4.395
2.7
7.296
11.804
8.869
2.481
4.303
4.031
4.943
21.334
4.529
3.171
3.748
3.783
13.449
2.765
10.845
3.773
4.584
3.536
4.724
2.856
1.91
15.355
3.004
4.953
26.975
5.342
4.143
6.559
4.696
8.222
6.161
6.785
11.54
4.002
6.198
8.513
14.022
4.877
3.373
9.69
4.158
3.197
12.306
2.575
9.15
4.634
4.097
6.541
4.922
9.124
14.537
6.097
4.756
5.004
11.772
11.86
3.001
5.603
2.983
2.621
9.753
4.144
2.616
10.483
5.56
2.78
5.084
11.064
6.996
3.841
3.096
4.934
4.387
5.623
25.252
4.807
7.923
3.251
5.178
13.446
30.595
6.26
17.767
3.716
2.664
3.296
4.257
7.703
12.277
5.319
38.848
2.402
5.781
5.036
9.186
3.279
16.738
3.478
7.901
4.603
8.018
8.898
3.272
3.4
6.1
19.283
10.092
19.437
3.799
3.102
8.26
30.012
3.007
3.291
19.068
5.516
9.024
8.657
38.001
3.731
3.525
4.607
2.275
6.576
3.69
5.206
4.917
5.259
3.558
3.823
15.8
7.355
7.901
4.747
5.172
11.024
3.657
3.463
21.388
12.57
3.307
3.833
4.144
3.66
8.386
18.51
4.978
11.22
2.923
2.882
5.484
6.172
22.239
3.987
8.533
9.273
2.296
2.577
6.817
3.322
8.601
4.41
14.828
3.047
6.511
4.632
4.666
9.314
7.272
3.369
14.826
15.624
3.783
2.513
3.079
3.048
12.04
5.26
1.893
5.86
4.704
9.586
4.337
2.976
2.264
7.893
1.89
6.21
3.905
16.438
3.481
3.712
4.141
9.765
9.225
2.712
3.296
4.168
5
1.815
13.322
2.921
2.616
2.911
10.794
4.698
5.987
8.627
2.987
1.984
2.914
6.464
11.038
20.403
2.329
5.271
3.038
13.464
12.337
6.923
16.752
3.464
1.86
22.736
9.372
3.36
5.712
7.02
4.693
33.027
3.444
1.502
2.762
4.183
1.574
17.995
2.72
2.428
6.855
11.197
2.269
22.922
5.253
3.578
16.726
3.24
23.612
2.694
2.845
2.341
12.98
3.081
6.199
2.248
2.578
9.038
23.297
18.039
8.524
5.285
19.275
14.277
10.642
3.735
7.926
4.14
6.701
2.818
3.781
4.209
9.647
13.792
3.034
2.323
2.134
19.242
4.352
1.888
32.703
3.018
25.34
4.303
8.616
3.24
9.576
2.831
2.555
2.839
2.522
12.241
7.703
17.642
2.271
2.68
27.021
9.007
18.35
2.055
9.049
2.178
5.201
2.485
14.615
3.203
20.936
14.921
4.323
8.436
1.79
2.884
4.208
11.78
5.378
9.768
4.233
7.039
2.939
13.595
2.828
2.866
2.535
5.968
11.149
3.001
2.447
2.956
11.836
3.029
2.447
4.206
3.209
13.061
3.032
5.256
4.882
10.163
2.576
2.223
13.696
5.608
3.952
3.344
3.296
4.392
8.6
5.008
8.248
2.341
3.998
5.293
2.54
2.04
25.872
2.556
5.957
5.542
6.361
4.79
18.243
1.856
2.777
15.586
19.26
