3.291
4.787
15.702
8.542
39.216
31.641
8.449
2.68
10.437
3.461
54.624
5.658
39.398
18.212
32.922
36.325
17.081
10.245
12.854
6.481
20.244
9.064
8.714
4.739
4.572
17.42
35.058
6.017
9.46
23.063
18.627
2.564
4.251
38.394
1.435
3.577
10.619
27.111
20.647
14.091
4.019
1.736
6.911
1.799
2.261
24.562
9.085
42.99
11.415
15.975
10.289
1.264
3.487
10.978
19.711
7.316
27.639
27.396
5.98
12.883
4.102
36.957
22.46
8.537
37.269
17.411
24.211
14.968
38.074
1.601
1.911
4.784
17.582
7.301
3.715
17.212
6.861
18.314
46.54
2.519
16.696
13.079
41.391
2.034
16.247
27.809
22.045
3.716
0.953
1.53
12.565
16.896
11.427
15.7
7.548
5.907
18.484
3.769
5.85
7.132
35.488
32.587
5.755
5.868
1.485
3.151
6.392
12.383
7.261
14.383
4.567
2.231
2.701
31.452
15.388
3.666
17.107
19.063
4.384
26.248
37.559
13.603
30.291
3.678
5.514
1.039
0.658
3.243
1.437
0.882
48.377
7.847
19.763
32.308
3.043
67.297
57.97
27.207
5.382
4.75
21.574
21.616
5.061
29.11
0.664
2.381
25.354
29.093
25.609
7.7
2.102
3.698
2.303
4.988
8.068
8.064
11.861
1.408
16.794
21.023
27.323
13.012
48.518
21.211
2.769
6.057
13.013
43.995
38.51
8.033
23.307
17.693
21.518
3.88
3.57
3.932
12.906
10.668
1.767
16.599
40.338
3.466
2.91
6.504
2.574
3.384
3.807
3.068
59.256
9.443
2.552
13.179
45.707
17.179
12.357
31.634
2.434
5.146
14.183
9.549
27.59
29.309
22.185
23.717
3.041
28.228
13.578
7.278
48.341
38.443
4.144
5.737
23.988
1.366
1.349
2.73
69.347
37.158
7.699
6.661
34.479
6.197
25.296
23.188
5.469
17.961
3.753
9.296
8.899
14.781
13.397
64.234
