1 373.7364243988148
2 282.7119789338913
3 276.36190487855197
4 273.39648228804776
5 261.3407009401918
6 257.9137068786187
7 286.17065369389945
8 250.92339157035153
9 262.1216150530901
10 279.2351271073899
11 287.7529556544481
12 286.50868656280966
13 254.68636288297645
14 267.0015286930864
15 290.4981810506327
16 255.07694277060548
17 274.0963709437802
18 248.57545752431363
19 249.8723062087616
20 325.82193413339513
21 249.67354398758047
22 256.11134170028583
23 310.1004368587153
24 251.83177083569325
25 313.750986391923
26 283.657981267799
27 263.8078156327237
28 253.1067187942212
29 271.0929454999572
30 291.9869967269717
31 275.98314040637706
32 266.39552456367477
33 250.48153551425867
34 308.32805157446757
35 315.4822397700828
36 315.1672527622505
37 260.9312976016618
38 269.0960421637367
39 318.7504988662106
40 313.8813213220064
41 290.493169176751
42 309.74240362265425
43 261.72922640685766
44 348.2039813867797
45 277.4884742105862
46 278.37299594755046
47 340.3613355181147
48 260.04144803840796
49 282.136699096148
50 251.54988482012473
